Gov 50 Final Project
…
homicide<- read_csv("Death Data.csv")

sentences <-read_csv("1991_2017_individualFIPS.csv-1991_2019_individualFIPS.csv")

##Give Sentences a County_code category 
sentences$county_code <- paste(sentences$fips_st,sentences$fips,sep="")

#DP Sentences County by County 
sentences_count <- sentences |> 
  group_by(county,state,year,county_code) |>
  summarize(sent=n())
sentences_count

# A tibble: 3,203 × 5
# Groups:   county, state, year [3,203]
   county    state           year county_code  sent
   <chr>     <chr>          <dbl> <chr>       <int>
 1 Abbeville South Carolina  1997 45001           1
 2 Abbeville South Carolina  2007 45001           1
 3 Acadia    Louisiana       2000 22001           1
 4 Accomack  Virginia        1998 51001           1
 5 Ada       Idaho           1991 16001           1
 6 Ada       Idaho           1993 16001           1
 7 Ada       Idaho           2002 16001           1
 8 Ada       Idaho           2004 16001           2
 9 Ada       Idaho           2010 16001           2
10 Adams     Colorado        1995 8001            1
# … with 3,193 more rows

##Execution Count by County 
execution_count<- sentences |>
  filter(Executed == "Executed") |>
  mutate(ExecutionDate=lubridate::mdy(DateofExecution)) |>
  mutate(ExecutionYear = lubridate::year(ExecutionDate)) |>
  group_by(county, county_code, ExecutionYear) |>
  summarize (exs=n())
execution_count

# A tibble: 519 × 4
# Groups:   county, county_code [290]
   county   county_code ExecutionYear   exs
   <chr>    <chr>               <dbl> <int>
 1 Accomack 51001                2004     1
 2 Aiken    45003                2004     1
 3 Aiken    45003                2005     1
 4 Aiken    45003                2006     1
 5 Aiken    45003                2008     1
 6 Alachua  12001                2006     1
 7 Alamance 37001                2004     1
 8 Anderson 45007                2000     1
 9 Anderson 48001                2003     1
10 Anderson 48001                2004     1
# … with 509 more rows
…
##Make data into megafile 
megafile<- rbind(hom2022,hom2021,hom2020,hom2019,hom2018,hom2017,hom2016,hom2014,hom2013,hom2012,hom2011,hom2010)

##make sure there is a county code column
 megafile<-megafile|>
  mutate(county_code = `5-digit FIPS Code`) 
megafile

# A tibble: 38,335 × 8
   5-digit FIPS …¹ State…² Name  Homic…³ Homic…⁴ Viole…⁵ year  count…⁶
   <chr>           <chr>   <chr> <chr>   <chr>   <chr>   <chr> <chr>  
 1 fipscode        state   coun… v015_r… v015_n… v043_r… 2022  fipsco…
 2 0               US      Unit… 5.8658… 133391  386.46… 2022  0      
 3 1000            AL      Alab… 11.106… 3794    479.91… 2022  1000   
 4 1001            AL      Auta… 5.9083… 23      272.28… 2022  1001   
 5 1003            AL      Bald… 3.2763… 49      203.66… 2022  1003   
 6 1005            AL      Barb… 11.187… 20      414.27… 2022  1005   
 7 1007            AL      Bibb… 9.5341… 15      89.349… 2022  1007   
 8 1009            AL      Blou… 7.1666… 29      482.69… 2022  1009   
 9 1011            AL      Bull… 15.204… 11      311.02… 2022  1011   
10 1013            AL      Butl… 19.437… 27      581.58… 2022  1013   
# … with 38,325 more rows, and abbreviated variable names
#   ¹​`5-digit FIPS Code`, ²​`State Abbreviation`,
#   ³​`Homicides raw value`, ⁴​`Homicides numerator`,
#   ⁵​`Violent crime raw value`, ⁶​county_code

##make sentences and megafile years compatable and make state colum in megafile
sentences_count$year <- as.integer(as.character(sentences_count$year))
sentences_count

# A tibble: 3,203 × 5
# Groups:   county, state, year [3,203]
   county    state           year county_code  sent
   <chr>     <chr>          <int> <chr>       <int>
 1 Abbeville South Carolina  1997 45001           1
 2 Abbeville South Carolina  2007 45001           1
 3 Acadia    Louisiana       2000 22001           1
 4 Accomack  Virginia        1998 51001           1
 5 Ada       Idaho           1991 16001           1
 6 Ada       Idaho           1993 16001           1
 7 Ada       Idaho           2002 16001           1
 8 Ada       Idaho           2004 16001           2
 9 Ada       Idaho           2010 16001           2
10 Adams     Colorado        1995 8001            1
# … with 3,193 more rows

megafile$year <- as.integer(as.character(megafile$year))

names(megafile)[names(megafile) == "Name"] <- "county_name"
names(megafile)[names(megafile) == "State Abbreviation"] <- "State_id"
names(megafile)[names(megafile) == "Homicides raw value"] <- "Homicides_value"
names(megafile)[names(megafile) == "Violent crime raw value"] <- "Violence_value"

megafile

# A tibble: 38,335 × 8
   5-digit FIP…¹ State…² count…³ Homic…⁴ Homic…⁵ Viole…⁶  year count…⁷
   <chr>         <chr>   <chr>   <chr>   <chr>   <chr>   <int> <chr>  
 1 fipscode      state   county  v015_r… v015_n… v043_r…  2022 fipsco…
 2 0             US      United… 5.8658… 133391  386.46…  2022 0      
 3 1000          AL      Alabama 11.106… 3794    479.91…  2022 1000   
 4 1001          AL      Autaug… 5.9083… 23      272.28…  2022 1001   
 5 1003          AL      Baldwi… 3.2763… 49      203.66…  2022 1003   
 6 1005          AL      Barbou… 11.187… 20      414.27…  2022 1005   
 7 1007          AL      Bibb C… 9.5341… 15      89.349…  2022 1007   
 8 1009          AL      Blount… 7.1666… 29      482.69…  2022 1009   
 9 1011          AL      Bulloc… 15.204… 11      311.02…  2022 1011   
10 1013          AL      Butler… 19.437… 27      581.58…  2022 1013   
# … with 38,325 more rows, and abbreviated variable names
#   ¹​`5-digit FIPS Code`, ²​State_id, ³​county_name, ⁴​Homicides_value,
#   ⁵​`Homicides numerator`, ⁶​Violence_value, ⁷​county_code

##give executions count a year column
names(execution_count)[names(execution_count) == "ExecutionYear"] <- "year"

##Merging sentences, and megafile data 
sentences_megafile<-megafile|>
  left_join(sentences_count) |>
  select(county_code, State_id, county_name, year,Violence_value, Homicides_value, sent)
alldata<-sentences_megafile|>
  left_join(execution_count) |>
  select(county_code, State_id, county_name, year, Violence_value, Homicides_value, exs, sent)
alldata

# A tibble: 38,336 × 8
   county_code State_id county_name   year Viole…¹ Homic…²   exs  sent
   <chr>       <chr>    <chr>        <dbl> <chr>   <chr>   <int> <int>
 1 fipscode    state    county        2022 v043_r… v015_r…    NA    NA
 2 0           US       United Stat…  2022 386.46… 5.8658…    NA    NA
 3 1000        AL       Alabama       2022 479.91… 11.106…    NA    NA
 4 1001        AL       Autauga Cou…  2022 272.28… 5.9083…    NA    NA
 5 1003        AL       Baldwin Cou…  2022 203.66… 3.2763…    NA    NA
 6 1005        AL       Barbour Cou…  2022 414.27… 11.187…    NA    NA
 7 1007        AL       Bibb County   2022 89.349… 9.5341…    NA    NA
 8 1009        AL       Blount Coun…  2022 482.69… 7.1666…    NA    NA
 9 1011        AL       Bullock Cou…  2022 311.02… 15.204…    NA    NA
10 1013        AL       Butler Coun…  2022 581.58… 19.437…    NA    NA
# … with 38,326 more rows, and abbreviated variable names
#   ¹​Violence_value, ²​Homicides_value
…
## The first part of my analysis will be to compare the same counties before and after that state got rid of the death penalty. The states that eliminated the death penalty (or put in place a moratorium) within the time of my data (2010-2022) are Virginia 2021 (FIPS codes 51001-51840) Maryland 2013 (24001-24510) Washington 2018 (53001-53077) New Hampshire 2019 (33001-33019) Connecticut 2012 (09001-09015) Deleware 2016 (10001-10005) Colorado 2020 (08001-08125) Illinois 2011 (17001-17203) Pennsylvania 2015 (42001-42113) *California 2019 (06001-06115)* Oregon 2011 (41001-41071) *. In order to do this analysis, I need to create a new dataframe from my alldata one which only gives information for counties within these states (1) and tags the data as before or after the death penalty was eliminated (2)

##1: 
alldata$county_code <- as.numeric(as.character(alldata$county_code))

alldata|>
  filter(county_code > 51000 & county_code < 51841) |>
  mutate(DP = if_else(year > 2021, 0, 1))

# A tibble: 1,602 × 9
   county_code State…¹ count…²  year Viole…³ Homic…⁴   exs  sent    DP
         <dbl> <chr>   <chr>   <dbl> <chr>   <chr>   <dbl> <dbl> <dbl>
 1       51001 VA      Accoma…  2022 225.86… 12.256…     0     0     0
 2       51003 VA      Albema…  2022 100.24… 1.8580…     0     0     0
 3       51005 VA      Allegh…  2022 195.93… <NA>        0     0     0
 4       51007 VA      Amelia…  2022 117.10… <NA>        0     0     0
 5       51009 VA      Amhers…  2022 133.08… <NA>        0     0     0
 6       51011 VA      Appoma…  2022 113.91… <NA>        0     0     0
 7       51013 VA      Arling…  2022 149.40… 1.1005…     0     0     0
 8       51015 VA      August…  2022 124.89… 2.0917…     0     0     0
 9       51017 VA      Bath C…  2022 111.22… <NA>        0     0     0
10       51019 VA      Bedfor…  2022 82.536… 3.2858…     0     0     0
# … with 1,592 more rows, and abbreviated variable names ¹​State_id,
#   ²​county_name, ³​Violence_value, ⁴​Homicides_value
…
